<?xml version="1.0" encoding="UTF-8"?>
<svg width="561.12" height="154.11" version="1.1" viewBox="0 0 561.12 154.11" xmlns="http://www.w3.org/2000/svg" xmlns:cc="http://creativecommons.org/ns#" xmlns:dc="http://purl.org/dc/elements/1.1/" xmlns:rdf="http://www.w3.org/1999/02/22-rdf-syntax-ns#">
 <metadata>
  <rdf:RDF>
   <cc:Work rdf:about="">
    <dc:format>image/svg+xml</dc:format>
    <dc:type rdf:resource="http://purl.org/dc/dcmitype/StillImage"/>
    <dc:title/>
   </cc:Work>
  </rdf:RDF>
 </metadata>
 <g fill="#fff">
  <g fill="#fff">
   <path d="m76.784 154.11a14.054 14.054 0 0 1-5.439-1.1l-44.451-18.636a13.977 13.977 0 0 1-7.583-7.651l-18.255-44.606a13.981 13.981 0 0 1 0.044-10.771l18.636-44.445a13.988 13.988 0 0 1 7.65-7.585l44.606-18.258a13.984 13.984 0 0 1 10.772 0.043l44.45 18.636a13.975 13.975 0 0 1 7.584 7.649l18.254 44.606a13.977 13.977 0 0 1-0.045 10.773l-18.635 44.449a13.979 13.979 0 0 1-7.648 7.584l-44.607 18.255a14.073 14.073 0 0 1-5.333 1.057zm0.54-149.42a9.379 9.379 0 0 0-3.554 0.7l-44.608 18.259a9.321 9.321 0 0 0-5.1 5.057l-18.634 44.45a9.326 9.326 0 0 0-0.028 7.181l18.255 44.606a9.314 9.314 0 0 0 5.056 5.1l44.45 18.634a9.31 9.31 0 0 0 7.18 0.031l44.607-18.254a9.324 9.324 0 0 0 5.1-5.057l18.632-44.449a9.32 9.32 0 0 0 0.031-7.182l-18.255-44.607a9.316 9.316 0 0 0-5.056-5.1l-44.45-18.634a9.352 9.352 0 0 0-3.626-0.735z"/>
   <path d="m97.606 141.02h-41.106a14.26 14.26 0 0 1-10.145-4.2l-29.061-29.066a14.254 14.254 0 0 1-4.2-10.146v-41.105a14.253 14.253 0 0 1 4.2-10.145l29.064-29.055a14.251 14.251 0 0 1 10.145-4.2h41.1a14.253 14.253 0 0 1 10.145 4.2l29.063 29.063a14.25 14.25 0 0 1 4.2 10.145v41.1a14.251 14.251 0 0 1-4.2 10.146l-29.061 29.061a14.249 14.249 0 0 1-10.144 4.202zm-41.106-123.14a9.5 9.5 0 0 0-6.763 2.8l-29.061 29.065a9.5 9.5 0 0 0-2.8 6.764v41.1a9.5 9.5 0 0 0 2.8 6.765l29.064 29.066a9.5 9.5 0 0 0 6.763 2.8h41.1a9.5 9.5 0 0 0 6.763-2.8l29.064-29.064a9.508 9.508 0 0 0 2.8-6.765v-41.105a9.506 9.506 0 0 0-2.8-6.764l-29.061-29.06a9.495 9.495 0 0 0-6.763-2.8z"/>
   <path d="m115.07 121.16h-76.027a6.1 6.1 0 0 1-6.093-6.092v-76.027a6.1 6.1 0 0 1 6.093-6.092h76.027a6.1 6.1 0 0 1 6.092 6.092v76.027a6.1 6.1 0 0 1-6.092 6.092zm-76.027-83.268a1.149 1.149 0 0 0-1.148 1.149v76.027a1.15 1.15 0 0 0 1.148 1.149h76.027a1.15 1.15 0 0 0 1.149-1.149v-76.027a1.15 1.15 0 0 0-1.149-1.149z"/>
   <path d="m200.7 109.56a4.027 4.027 0 0 0 4.027 4.027h41.768v-9.569h-35.409v-23.239h35.407v-8.886h-35.407v-22.42h35.407v-9.569h-45.793z"/>
   <path d="m310.62 47.765a33.518 33.518 0 0 0-10.048-5.673 34.928 34.928 0 0 0-11.962-2.05h-24.88v69.519a4.027 4.027 0 0 0 4.027 4.027h20.853a36.986 36.986 0 0 0 12.167-1.982 32.793 32.793 0 0 0 10.048-5.468 26.015 26.015 0 0 0 6.835-8.407 23.288 23.288 0 0 0 2.529-10.8v-20.095a22.106 22.106 0 0 0-2.6-10.595 28.277 28.277 0 0 0-6.969-8.476zm-0.819 39.166a14.5 14.5 0 0 1-1.646 6.835 16.554 16.554 0 0 1-4.528 5.4 22.492 22.492 0 0 1-6.725 3.554 25.508 25.508 0 0 1-8.234 1.3h-14.548v-54.409h14.546a23.619 23.619 0 0 1 7.959 1.367 22.833 22.833 0 0 1 6.724 3.691 19.088 19.088 0 0 1 4.667 5.468 13.38 13.38 0 0 1 1.783 6.7z"/>
   <path d="m388.82 71.894h-26.96v8.886h20.6v19.275a37.452 37.452 0 0 1-7.957 3.622 34.721 34.721 0 0 1-10.7 1.435 20.909 20.909 0 0 1-7.752-1.435 19.494 19.494 0 0 1-6.312-3.964 19.093 19.093 0 0 1-4.252-5.947 17.082 17.082 0 0 1-1.576-7.245v-19.821a14.554 14.554 0 0 1 1.776-6.9 20.172 20.172 0 0 1 4.717-5.879 24.955 24.955 0 0 1 6.7-4.1 20.47 20.47 0 0 1 7.895-1.573 29.9 29.9 0 0 1 10.76 2.052 19.973 19.973 0 0 1 8.475 5.877l6.7-6.561a31.51 31.51 0 0 0-11.551-8.134 37.23 37.23 0 0 0-13.852-2.8 32.893 32.893 0 0 0-12.473 2.255 33.31 33.31 0 0 0-10.038 6.079 30.032 30.032 0 0 0-6.9 8.955 23.412 23.412 0 0 0-2.6 10.731v19.819a26.632 26.632 0 0 0 2.324 11.141 28.182 28.182 0 0 0 15.925 14.9 33.18 33.18 0 0 0 11.962 2.119 43.635 43.635 0 0 0 16.337-2.734 59.381 59.381 0 0 0 11.051-5.894 4.013 4.013 0 0 0 1.731-3.326v-26.806a4.027 4.027 0 0 0-4.03-4.027z"/>
   <path d="m453.13 49.474v-9.569h-45.795v69.656a4.027 4.027 0 0 0 4.027 4.027h41.768v-9.569h-35.407v-23.239h35.407v-8.886h-35.407v-22.42z"/>
   <rect x="471.92" y="39.417" width="15.038" height="74.522"/>
   <path d="m561.12 112.74-6.308-6.663c3.5-4.745 4.808-11.674 4.808-16.714v-27.393c0-20.857-19.182-23.975-30.62-23.975s-30.617 3.114-30.617 23.971v29.411c0 10.348 4.842 22.883 27.91 23.831 0.952 0.039 1.962 0.059 3.011 0.059h1.173v-13.372l20.535 20.814zm-31.52-11.354c-0.2 7e-3 -0.393 0.013-0.6 0.013-11.255 0-16.056-3.487-16.056-11.659v-26.133c0-8.171 4.8-11.658 16.056-11.658 11.1 0 16.057 3.6 16.057 11.658v24.12a15.787 15.787 0 0 1-1.349 6.625l-13.635-14.4v21.423z"/>
  </g>
 </g>
</svg>
